<?xml version="1.0" encoding="utf-8"?>
<!-- Generator: Adobe Illustrator 19.0.0, SVG Export Plug-In . SVG Version: 6.00 Build 0)  -->
<svg version="1.1" id="Layer_1" xmlns="http://www.w3.org/2000/svg" xmlns:xlink="http://www.w3.org/1999/xlink" x="0px" y="0px"
	 viewBox="0 0 800 600" style="enable-background:new 0 0 800 600;" xml:space="preserve">
<style type="text/css">
	.st0{fill:#FFFFFF;}
</style>
<g>

	<path class="st0" d="M140.7,152.3c12.8-4.6,24.9-9.8,37.5-13.2c12.8-3.5,26-7.1,39.1-7.3c30-0.5,59.7,1.9,84.6,21.9c2.6,2.1,5.2,4.2,7.3,6.7
		c3.2,3.8,2.2,7.3-2.9,7.8c-7.2,0.7-14.7,0.9-21.8-0.3c-14.7-2.5-28.4-8.2-40.9-16.5c-5.3-3.5-10.3-7.4-12-14.3
		c-6.9,0-13.7-0.2-20.5,0.1c-4.7,0.2-9.2,6.4-7.6,11.4c1.5,4.8,4.2,9.3,7,13.5c2,3,5.2,5.1,7.8,7.7c4.4,4.4,9.3,5.4,15.7,4.8
		c28.6-2.9,56.8-0.7,84.5,7.7c13.5,4.1,24.2,11.3,29.8,24.9c3.9,9.5,8.5,18.7,12.3,28.2c2.9,7.5,0.7,12.2-7.3,13.7
		c-8.1,1.5-16.6,2.5-24.7,1.5c-43.5-4.9-83.4-19.8-118.1-46.7c-6.4-5-11.9-7.4-19.8-5.1c-13.7,4.1-27.4,7.8-41.2,11.7
		c-0.9,0.3-1.7,0.9-3.6,1.9c6.5,5.9,12.3,11.8,18.6,17c17.9,14.7,37.8,26,59,35.1c2,0.9,4.9,0.7,7.1,0.2c21.3-5.1,42.9-7.7,64.8-7.4
		c19.3,0.3,38.6,1.9,56.7,9.4c0.3,0.1,0.6,0.2,0.9,0.3c14.1,6.2,15.4,8.3,15,23.7c-0.5,21.9-6,42.7-14.6,62.7
		c-2.3,5.2-6.9,7.5-11.9,9.1c-10.5,3.5-21.4,3.2-32.2,1.8c-47.5-6.1-90.1-25.1-130.2-50.3c-3.3-2.1-6.1-2.3-9.8-1.1
		c-14.2,4.7-27.5,11-37.8,22.3c-0.8,0.9-1.5,1.8-2.2,2.7c-0.3,0.4-0.5,0.9-1.1,2c8.9,5.2,17.5,11,26.7,15.5
		c13.4,6.7,27.1,12.7,40.8,18.7c2.3,1,5.5,1,7.9,0.3c36-10.4,72.1-12.1,108.3-1.6c5,1.5,10,3.8,14.4,6.6c6,3.7,6.3,7.8,1.7,13.1
		c-9.6,11.2-20.5,20.9-32.9,28.9c-8.6,5.6-18.5,6.4-28.4,6.1c-33-1.1-64.5-9-94.5-22.6c-4.4-2-6.8-1-8.7,2.8c-1.4,2.7-2.6,5.6-5,8.2
		c1-4.9,2.1-9.8,3.3-15.5c-0.7-0.4-2.3-1.3-3.8-2.1c-34.8-17.9-65.5-41-87.9-73.6c-14.7-21.3-23.5-44.7-22.7-71.1
		c0.8-27.3,11.9-50.6,29-71.2c6-7.3,13.1-13.7,19.7-20.5c0.8-0.9,1.9-1.5,3.2-1.8C94.5,166,89,171.5,84,177.4
		c-10,11.8-17.7,25-21.9,40c-5.4,19.3-3.3,37.9,4.9,56c12.5,27.5,34,46.7,58.4,64.2c7.2-15.9,18.1-28.4,31-38.9
		c-7.7-7.3-15.6-14.2-23-21.6c-14.2-14.4-25.8-30.7-31.3-50.4c-8.6-31.3,1.5-58.8,28.9-78.8c24.7-18,52.8-23.4,82.8-20.3
		C187.3,128.9,161.5,132.5,140.7,152.3z M188.7,182.3c-11.6-20.2-11.3-27,1.9-42.5c-11.9,0.7-43.4,11.3-52.9,17.8
		c-1.2,0.8-2.2,2-2.9,3.3c-7.8,13.4-4.4,34.3,6.4,44.1C157.2,197.4,172.8,189.9,188.7,182.3z M291.5,151.6c-0.1-0.6-0.2-1.2-0.3-1.8
		c-16.7-6.7-34-10.9-52.5-12.5c0.6,1,0.8,1.5,1.2,1.7c13.4,10,28.4,14.8,45.1,14.8C287.1,153.8,289.3,152.4,291.5,151.6z"/>
	<path class="st0" d="M521.3,236.2c5.2,0,9.9-0.3,14.5,0.2c1.5,0.1,3.1,2.1,4,3.6c7.5,13.7,14.8,27.5,22.2,41.3c0.8,1.5,1.6,2.9,2.7,4.8
		c1.8-3.4,3.5-6.4,5.1-9.5c6.4-12.2,12.9-24.5,19.1-36.8c1.4-2.7,2.9-4,6.1-3.8c3.9,0.3,7.9,0.1,12.2,0.1c0,21.9,0,43.3,0,65
		c-4.8,0-9.4,0-14.4,0c0-11.5,0-22.8,0-35.6c-1.7,2.5-2.7,3.7-3.5,5c-5.6,9.2-11.2,18.5-16.9,27.7c-2.9,4.6-12.6,4.7-15.6,0.1
		c-6.7-10.5-13.2-21.1-20.7-31.5c0,11.3,0,22.7,0,34.2c-5.3,0-10.1,0-14.9,0C521.3,279.5,521.3,258.2,521.3,236.2z"/>
	<path class="st0" d="M756.2,236.2c-9.9,12.5-18.9,23.8-28.3,35.6c9.7,9.6,19.4,19.1,29.8,29.4c-9.3,0.5-17.4,2.3-23.4-6.2
		c-4.1-5.8-9.7-10.5-15.1-16.2c-4.9,5.2-10.3,9.7-14.2,15.4c-5.9,8.6-13.8,8.4-22,7.1c9.4-9.4,19-18.9,28.7-28.7
		c-9.8-12.4-18.9-23.8-28.7-36.2c5.9,0,10.6-0.2,15.3,0.1c1.3,0.1,2.7,1.7,3.6,3c5.9,8.4,11.7,16.9,17.9,25.9
		c5.5-8.1,10.9-15.4,15.6-23.2c2.8-4.6,5.9-6.7,11.2-5.9C749.4,236.5,752,236.2,756.2,236.2z"/>
	<path class="st0" d="M44.5,320.9c17.4,50.6,54.9,80.4,101.4,101.1c8.9,4,18.3,6.9,27.5,10.2c1.5,0.5,3.5,0.9,4.7,0.3
		c15.8-8.1,32.6-7.3,49.4-5.7c6.4,0.6,12.7,2.5,18.9,4c1.9,0.5,3.9,1.3,5.3,2.6c1.4,1.2,3.2,3.1,3.1,4.6c-0.1,1.4-2.2,3.3-3.8,3.9
		c-6.3,2-12.8,3.6-19.2,5.3c-13.5,3.6-26.8,0.8-39.9-2.1c-33.7-7.6-64.8-21.1-92.1-42.4c-25.6-19.9-44.3-44.9-53.9-76.2
		C45.4,324.6,45,322.7,44.5,320.9z M179.5,434.1c18.1,4.9,34.8,8.7,52.5,9.2C228.3,433.1,197.5,427.6,179.5,434.1z"/>
	<path class="st0" d="M411.1,317.3c9.9-3.2,11.9-5.9,12-16.5c0.1-19.5,0-39,0.1-58.4c0-1.8,0-3.6,0-5.8c4.9,0,9.5,0,14.6,0
		c0.1,1.3,0.3,2.7,0.3,4.1c0,19,0.2,38-0.1,56.9c-0.1,5.2-1.3,10.6-3.2,15.4c-2.7,6.7-8.2,10.6-15.4,12.1c-4,0.9-6.4,0-7.1-4.2
		C411.9,319.8,411.5,318.7,411.1,317.3z"/>
	<path class="st0" d="M584.5,340c-10.7,2.5-11-8.7-17.7-12.3c0,4.2,0,8.2,0,12.4c-2.3,0-3.9,0-5.7,0c0-8.2,0-16.1,0-24.3c12-2,10.6,11,17.7,15
		c0-5,0-9.9,0-15c2.2,0,3.7,0,5.7,0C584.5,323.9,584.5,331.8,584.5,340z"/>
	<path class="st0" d="M707.8,330.5c0-2.5,0-4.9,0-7.4c0-2.3,0-4.6,0-7.2c2,0,3.6,0,5.6,0c0,7.9,0,15.8,0,24c-10.6,2.9-10.9-8.5-17.5-12.3
		c0,4.1,0,8.1,0,12.4c-2.3,0-3.9,0-5.8,0c0-8,0-15.9,0-23.9c4.9-1.9,7.8,0,10,4.3c1.9,3.6,4.4,6.9,6.6,10.4
		C707.1,330.8,707.5,330.6,707.8,330.5z"/>
	<path class="st0" d="M520,315.6c8.9,0,14.1,4.5,14.1,12.4c0,8-5.5,13-14.3,13c-8.5,0-13.9-5-13.8-12.8C506.1,320.2,511.3,315.6,520,315.6z
		 M528,328c-0.1-5.7-3.4-9.6-8.1-9.5c-4.6,0.1-7.5,3.7-7.5,9.4c0,6.1,2.8,9.6,7.7,9.6C524.9,337.5,528,333.7,528,328z"/>
	<path class="st0" d="M742.1,340.4c0-8.5,0-16.4,0-24.8c4.9,0,9.5-0.1,14.1,0.1c0.9,0,1.8,1.3,2.6,2c-0.8,0.6-1.6,1.6-2.5,1.7
		c-2.6,0.2-5.3,0.1-8.3,0.1c0,2.2,0,3.9,0,5.9c1.6,0.1,3.1,0,4.5,0.3c1.2,0.3,2.3,1.2,3.4,1.8c-1,0.7-2,1.6-3.2,2
		c-1.4,0.4-2.9,0.2-4.7,0.3c0,2.3,0,4.3,0,6.9c3.2,0,6.2-0.1,9.1,0.1c0.9,0.1,1.7,1,2.6,1.6c-0.9,0.7-1.7,2-2.6,2
		C752.3,340.5,747.5,340.4,742.1,340.4z"/>
	<path class="st0" d="M613.1,340.4c0-8.6,0-16.5,0-24.5c1.9,0,3.4,0,5.6,0c0,6.9,0,13.5,0,20.7c3.3,0,6.1-0.1,8.9,0.1c0.9,0.1,1.7,1,2.5,1.6
		c-0.8,0.7-1.7,2-2.5,2.1C622.9,340.5,618.2,340.4,613.1,340.4z"/>
	<path class="st0" d="M661.4,340.4c-2.2-0.1-3.6-0.2-5.3-0.3c0-8.2,0-16.1,0-24.3c1.8,0,3.4,0,5.3,0C661.4,324.1,661.4,332,661.4,340.4z"/>



</g>
</svg>
